{
    "version": "2.3.0",
    "vulnerabilities": [
        {
            "id": "73257832db7d155c9f979983c31c1d9937f5220cfc42228d75f685771342682c",
            "category": "container_scanning",
            "cve": "",
            "severity": "Unknown",
            "scanner": {
                "id": "tensorsec-scanner",
                "name": "tensorsec-scanner"
            },
            "location": {
                "dependency": {
                    "package": {
                        "name": "软件包"
                    },
                    "version": "软件版本"
                }
            },
            "identifiers": null
        },
        {
            "id": "b947ce8a5af4ee547e4ee67c15a7f72ccadddbe91847a864c34ff4f64d269eff",
            "category": "container_scanning",
            "cve": "",
            "severity": "Medium",
            "scanner": {
                "id": "tensorsec-scanner",
                "name": "tensorsec-scanner"
            },
            "location": {
                "dependency": {
                    "package": {
                        "name": "busybox"
                    },
                    "version": "1.31.1-r16"
                }
            },
            "identifiers": [
                {
                    "type": "cve",
                    "name": "CVE-2021-28831",
                    "value": "CVE-2021-28831",
                    "url": "https://cve.mitre.org/cgi-bin/cvename.cgi?name=CVE-2021-28831"
                }
            ]
        },
        {
            "id": "9f8a556e947bdaff2a03dbc3bcc94e7f5d592525d41adc63bab1ca1ba252f433",
            "category": "container_scanning",
            "cve": "",
            "severity": "Low",
            "scanner": {
                "id": "tensorsec-scanner",
                "name": "tensorsec-scanner"
            },
            "location": {
                "dependency": {
                    "package": {
                        "name": "musl"
                    },
                    "version": "1.1.24-r8"
                }
            },
            "identifiers": [
                {
                    "type": "cve",
                    "name": "CVE-2020-28928",
                    "value": "CVE-2020-28928",
                    "url": "https://cve.mitre.org/cgi-bin/cvename.cgi?name=CVE-2020-28928"
                }
            ]
        },
        {
            "id": "08398084dab8ab099e2bf4f0894bb6239e0fc984fa1662eead92adf2224b0db5",
            "category": "container_scanning",
            "cve": "",
            "severity": "Unknown",
            "scanner": {
                "id": "tensorsec-scanner",
                "name": "tensorsec-scanner"
            },
            "location": {
                "dependency": {
                    "package": {
                        "name": "apk-tools"
                    },
                    "version": "2.10.5-r1"
                }
            },
            "identifiers": [
                {
                    "type": "cve",
                    "name": "CVE-2021-30139",
                    "value": "CVE-2021-30139",
                    "url": "https://cve.mitre.org/cgi-bin/cvename.cgi?name=CVE-2021-30139"
                }
            ]
        },
        {
            "id": "04c0f4ae5c4ddc851191ba104376c0015d6c686375d5696409e76d400941041c",
            "category": "container_scanning",
            "cve": "",
            "severity": "Critical",
            "scanner": {
                "id": "tensorsec-scanner",
                "name": "tensorsec-scanner"
            },
            "location": {
                "file": "文件路径"
            },
            "identifiers": null
        },
        {
            "id": "8464c1c2711c3fd09300c80714f2dff7d53c9d9fb69ade2d098a31a0c8405aef",
            "category": "container_scanning",
            "cve": "",
            "severity": "Critical",
            "scanner": {
                "id": "tensorsec-scanner",
                "name": "tensorsec-scanner"
            },
            "location": {
                "file": "etc/apk/keys/alpine-devel@lists.alpinelinux.org-4a6a0840.rsa.pub"
            },
            "identifiers": null
        },
        {
            "id": "6ae87465d03582102946a26a378a780ff180f141fcc40fa2f6fd32994f849b4f",
            "category": "container_scanning",
            "cve": "",
            "severity": "Critical",
            "scanner": {
                "id": "tensorsec-scanner",
                "name": "tensorsec-scanner"
            },
            "location": {
                "file": "etc/apk/keys/alpine-devel@lists.alpinelinux.org-5243ef4b.rsa.pub"
            },
            "identifiers": null
        },
        {
            "id": "29a36a183cb305894f1de7b55ebf14c7143f97e7ea9f138d5a48db81c165b71d",
            "category": "container_scanning",
            "cve": "",
            "severity": "Critical",
            "scanner": {
                "id": "tensorsec-scanner",
                "name": "tensorsec-scanner"
            },
            "location": {
                "file": "etc/apk/keys/alpine-devel@lists.alpinelinux.org-5261cecb.rsa.pub"
            },
            "identifiers": null
        },
        {
            "id": "7c37c88f95b3fac588901fa7c08db7f366fbdf1720ade1cb95af133e64576ba6",
            "category": "container_scanning",
            "cve": "",
            "severity": "Critical",
            "scanner": {
                "id": "tensorsec-scanner",
                "name": "tensorsec-scanner"
            },
            "location": {
                "file": "etc/udhcpd.conf"
            },
            "identifiers": null
        },
        {
            "id": "39f20aae8b902ef4e46012606175d655413c91187d00930b57cdf613b664e54e",
            "category": "container_scanning",
            "cve": "",
            "severity": "Critical",
            "scanner": {
                "id": "tensorsec-scanner",
                "name": "tensorsec-scanner"
            },
            "location": {
                "file": "usr/share/apk/keys/aarch64/alpine-devel@lists.alpinelinux.org-58199dcc.rsa.pub"
            },
            "identifiers": null
        },
        {
            "id": "c5c0a4ca3ef32df1790d3623fe35d6acb9e7c89a314a2e590d0bfeb6495e0572",
            "category": "container_scanning",
            "cve": "",
            "severity": "Critical",
            "scanner": {
                "id": "tensorsec-scanner",
                "name": "tensorsec-scanner"
            },
            "location": {
                "file": "usr/share/apk/keys/alpine-devel@lists.alpinelinux.org-4a6a0840.rsa.pub"
            },
            "identifiers": null
        },
        {
            "id": "41edcee816c942920207d1b81d16b1bae1485826b5a43374725711c4e80a3705",
            "category": "container_scanning",
            "cve": "",
            "severity": "Critical",
            "scanner": {
                "id": "tensorsec-scanner",
                "name": "tensorsec-scanner"
            },
            "location": {
                "file": "usr/share/apk/keys/alpine-devel@lists.alpinelinux.org-5243ef4b.rsa.pub"
            },
            "identifiers": null
        },
        {
            "id": "732d32fc937aa89517012e7a5920d5ed935e6f9b664e97a7a1bbc986c13b9be9",
            "category": "container_scanning",
            "cve": "",
            "severity": "Critical",
            "scanner": {
                "id": "tensorsec-scanner",
                "name": "tensorsec-scanner"
            },
            "location": {
                "file": "usr/share/apk/keys/alpine-devel@lists.alpinelinux.org-524d27bb.rsa.pub"
            },
            "identifiers": null
        },
        {
            "id": "7de1071a35fa6659cb1b8ba67de0e282ec90bc0a43fe1fb18bcabd531770266d",
            "category": "container_scanning",
            "cve": "",
            "severity": "Critical",
            "scanner": {
                "id": "tensorsec-scanner",
                "name": "tensorsec-scanner"
            },
            "location": {
                "file": "usr/share/apk/keys/alpine-devel@lists.alpinelinux.org-5261cecb.rsa.pub"
            },
            "identifiers": null
        },
        {
            "id": "84713c1c95e16cc3e5cde357acaf7757b0f690363c8646e29fae8d7ecc60a71c",
            "category": "container_scanning",
            "cve": "",
            "severity": "Critical",
            "scanner": {
                "id": "tensorsec-scanner",
                "name": "tensorsec-scanner"
            },
            "location": {
                "file": "usr/share/apk/keys/alpine-devel@lists.alpinelinux.org-58199dcc.rsa.pub"
            },
            "identifiers": null
        },
        {
            "id": "582315273e3fdec4dc5c2fe00bf2bcc2a5ccf6738e13fe29fb530f241a6fb3cd",
            "category": "container_scanning",
            "cve": "",
            "severity": "Critical",
            "scanner": {
                "id": "tensorsec-scanner",
                "name": "tensorsec-scanner"
            },
            "location": {
                "file": "usr/share/apk/keys/alpine-devel@lists.alpinelinux.org-58cbb476.rsa.pub"
            },
            "identifiers": null
        },
        {
            "id": "b9e443c26731165e5617ec8fb0cb54049bd04f7d20c649727678eaed9d6958bc",
            "category": "container_scanning",
            "cve": "",
            "severity": "Critical",
            "scanner": {
                "id": "tensorsec-scanner",
                "name": "tensorsec-scanner"
            },
            "location": {
                "file": "usr/share/apk/keys/alpine-devel@lists.alpinelinux.org-58e4f17d.rsa.pub"
            },
            "identifiers": null
        },
        {
            "id": "a3c385f26909d0ca6333821301a1d2fc432c360422de5b53e7fd2f6c946db4fb",
            "category": "container_scanning",
            "cve": "",
            "severity": "Critical",
            "scanner": {
                "id": "tensorsec-scanner",
                "name": "tensorsec-scanner"
            },
            "location": {
                "file": "usr/share/apk/keys/alpine-devel@lists.alpinelinux.org-5e69ca50.rsa.pub"
            },
            "identifiers": null
        },
        {
            "id": "0b318c94ca2312f0a1a39eaaad941a50a7959625d1c9453cafda5ab61ce3e6a8",
            "category": "container_scanning",
            "cve": "",
            "severity": "Critical",
            "scanner": {
                "id": "tensorsec-scanner",
                "name": "tensorsec-scanner"
            },
            "location": {
                "file": "usr/share/apk/keys/armhf/alpine-devel@lists.alpinelinux.org-524d27bb.rsa.pub"
            },
            "identifiers": null
        },
        {
            "id": "9a73eaf06ef353332b96d7c959e18e0e84735c907ffaacaebba0e8b906758b70",
            "category": "container_scanning",
            "cve": "",
            "severity": "Critical",
            "scanner": {
                "id": "tensorsec-scanner",
                "name": "tensorsec-scanner"
            },
            "location": {
                "file": "usr/share/apk/keys/mips64/alpine-devel@lists.alpinelinux.org-5e69ca50.rsa.pub"
            },
            "identifiers": null
        },
        {
            "id": "738f773a6b241995afcd995023ff571b2895baca2665e436a6a6f0092e005f6e",
            "category": "container_scanning",
            "cve": "",
            "severity": "Critical",
            "scanner": {
                "id": "tensorsec-scanner",
                "name": "tensorsec-scanner"
            },
            "location": {
                "file": "usr/share/apk/keys/ppc64le/alpine-devel@lists.alpinelinux.org-58cbb476.rsa.pub"
            },
            "identifiers": null
        },
        {
            "id": "221c07abd89f3ba703631589c2803c3d7a63453a102dbef080c33a16ed70f03e",
            "category": "container_scanning",
            "cve": "",
            "severity": "Critical",
            "scanner": {
                "id": "tensorsec-scanner",
                "name": "tensorsec-scanner"
            },
            "location": {
                "file": "usr/share/apk/keys/s390x/alpine-devel@lists.alpinelinux.org-58e4f17d.rsa.pub"
            },
            "identifiers": null
        },
        {
            "id": "1d3fbf85c3efddeb499ae447ee0bddd4a1e69cae79edc3e7b8652d7e68113c6f",
            "category": "container_scanning",
            "cve": "",
            "severity": "Critical",
            "scanner": {
                "id": "tensorsec-scanner",
                "name": "tensorsec-scanner"
            },
            "location": {
                "file": "usr/share/apk/keys/x86/alpine-devel@lists.alpinelinux.org-4a6a0840.rsa.pub"
            },
            "identifiers": null
        },
        {
            "id": "b96f9e6f8a776b00c7dcdb265e6931af39ebca21ead376f699c909d7dfc84ad9",
            "category": "container_scanning",
            "cve": "",
            "severity": "Critical",
            "scanner": {
                "id": "tensorsec-scanner",
                "name": "tensorsec-scanner"
            },
            "location": {
                "file": "usr/share/apk/keys/x86/alpine-devel@lists.alpinelinux.org-5243ef4b.rsa.pub"
            },
            "identifiers": null
        },
        {
            "id": "83845436297df86070904199c8f0c6929615188de09826c0500edb70a6f846be",
            "category": "container_scanning",
            "cve": "",
            "severity": "Critical",
            "scanner": {
                "id": "tensorsec-scanner",
                "name": "tensorsec-scanner"
            },
            "location": {
                "file": "usr/share/apk/keys/x86_64/alpine-devel@lists.alpinelinux.org-4a6a0840.rsa.pub"
            },
            "identifiers": null
        },
        {
            "id": "2c9794ab1ab4c39440d115be9d4300582367c6e7fc06613c58f4f5394e22dcf5",
            "category": "container_scanning",
            "cve": "",
            "severity": "Critical",
            "scanner": {
                "id": "tensorsec-scanner",
                "name": "tensorsec-scanner"
            },
            "location": {
                "file": "usr/share/apk/keys/x86_64/alpine-devel@lists.alpinelinux.org-5261cecb.rsa.pub"
            },
            "identifiers": null
        }
    ],
    "remediations": null,
    "scan": {
        "scanner": {
            "id": "",
            "name": "",
            "vendor": {
                "name": ""
            },
            "version": ""
        },
        "type": ""
    }
}